Workaway - exploring recent travelling trend
…
We have thousands of records meaning that 27k people are willing to accept a stranger in their house offering food and accommodation in exchange for a few hours of work. The data is a mixture of all, with a majority of character type, so it would certainly require transforamtion and text analysis. Dataset is mostly complete, however several variables are missing in ~50%.

Geography

Lets see first how many countries in total participate?

## # A tibble: 156 x 2
## # Groups:   country_host [156]
##    country_host      n
##    <chr>         <int>
##  1 France         2478
##  2 Spain          2253
##  3 Italy          1859
##  4 Canada         1310
##  5 Australia      1274
##  6 New Zealand     878
##  7 Germany         861
##  8 United States   813
##  9 Portugal        798
## 10 Ireland         740
## # ... with 146 more rows
…
Reality of feedback total scale <0; 15> is that among non-missing data, 90% values fall between <14;15> range.

We will take the top 200 words from tokenized accommodation, filter out stop words in all popular languages (English, French, Spanish, German, Polish), as well as plurals (English only as is the most popular). Then create all pairs of word vs feedback level.

## # A tibble: 800 x 5
##    word          feedback_total     n  total proportion
##    <chr>                  <dbl> <int>  <int>      <dbl>
##  1 accommodate               12     9  10660   0.000844
##  2 accommodate               13    30  20793   0.00144 
##  3 accommodate               14   161 140395   0.00115 
##  4 accommodate               15   183 159676   0.00115 
##  5 accommodation             12    79  10660   0.00741 
##  6 accommodation             13   115  20793   0.00553 
##  7 accommodation             14   790 140395   0.00563 
##  8 accommodation             15   813 159676   0.00509 
##  9 accomodation              12    20  10660   0.00188 
## 10 accomodation              13    16  20793   0.000769
## # ... with 790 more rows

We proceed with predicting occurrence of words in particular level as word count out of total counts in level via GLM model.

## # A tibble: 200 x 7
##    word     data             term           estimate std.error statistic p.value
##    <chr>    <list>           <chr>             <dbl>     <dbl>     <dbl>   <dbl>
##  1 queen    <tibble [4 x 4]> feedback_total    0.499    0.0906      5.51 6.89e-6
##  2 spare    <tibble [4 x 4]> feedback_total    0.490    0.105       4.67 5.78e-4
##  3 size     <tibble [4 x 4]> feedback_total    0.441    0.0958      4.60 7.89e-4
##  4 happy    <tibble [4 x 4]> feedback_total    0.371    0.0700      5.30 2.29e-5
##  5 lovely   <tibble [4 x 4]> feedback_total    0.322    0.103       3.13 2.89e-1
##  6 join     <tibble [4 x 4]> feedback_total    0.311    0.0934      3.33 1.50e-1
##  7 love     <tibble [4 x 4]> feedback_total    0.309    0.0719      4.30 3.19e-3
##  8 children <tibble [4 x 4]> feedback_total    0.306    0.105       2.92 5.48e-1
##  9 maison   <tibble [4 x 4]> feedback_total    0.302    0.0941      3.21 2.26e-1
## 10 bath     <tibble [4 x 4]> feedback_total    0.290    0.0808      3.59 5.76e-2
## # ... with 190 more rows
…
